{
  "nodes": [
    {
      "@id": "Small",
      "@type": "Cycle",
      "inputs": [
        {
          "@type": "Input",
          "term": {
            "@id": "ureaKgN",
            "name": "Urea (kg N)",
            "termType": "inorganicFertilizer",
            "units": "kg N"
          },
          "value": "48.59624"
        },
        {
          "@type": "Input",
          "term": {
            "@id": "inorganicPhosphorusFertiliserUnspecifiedKgP2O5",
            "name": "Inorganic Phosphorus fertiliser, unspecified (kg P2O5)",
            "termType": "inorganicFertilizer",
            "units": "kg P2O5"
          },
          "value": "25.988424"
        },
        {
          "@type": "Input",
          "term": {
            "@id": "inorganicPotassiumFertiliserUnspecifiedKgK2O",
            "name": "Inorganic Potassium fertiliser, unspecified (kg K2O)",
            "termType": "inorganicFertilizer",
            "units": "kg K2O"
          },
          "value": "15.937152"
        },
        {
          "@type": "Input",
          "term": {
            "@id": "diesel",
            "name": "Diesel",
            "termType": "fuel",
            "units": "kg"
          },
          "value": "86.90678908"
        }
      ],
      "name": "Peanut, in shell - Astaneh-ye-Ashrafiyeh, Iran - 2012",
      "practices": [
        {
          "@type": "Practice",
          "term": {
            "@id": "fullTillage",
            "name": "Full tillage",
            "termType": "landUseManagement"
          }
        }
      ],
      "products": [
        {
          "@type": "Product",
          "description": "Yield provided by author (Khojastehpour, M., personal communication, 28/08/2015)",
          "economicValueShare": "100",
          "primary": true,
          "term": {
            "@id": "peanutInShell",
            "name": "Peanut, in shell",
            "termType": "crop",
            "units": "kg"
          },
          "value": "3018.4"
        }
      ],
      "site": {
        "@id": "Small"
      }
    },
    {
      "@id": "Medium",
      "@type": "Cycle",
      "inputs": [
        {
          "@type": "Input",
          "term": {
            "@id": "ureaKgN",
            "name": "Urea (kg N)",
            "termType": "inorganicFertilizer",
            "units": "kg N"
          },
          "value": "52.3439"
        },
        {
          "@type": "Input",
          "term": {
            "@id": "inorganicPhosphorusFertiliserUnspecifiedKgP2O5",
            "name": "Inorganic Phosphorus fertiliser, unspecified (kg P2O5)",
            "termType": "inorganicFertilizer",
            "units": "kg P2O5"
          },
          "value": "26.32"
        },
        {
          "@type": "Input",
          "term": {
            "@id": "inorganicPotassiumFertiliserUnspecifiedKgK2O",
            "name": "Inorganic Potassium fertiliser, unspecified (kg K2O)",
            "termType": "inorganicFertilizer",
            "units": "kg K2O"
          },
          "value": "12.1401"
        },
        {
          "@type": "Input",
          "term": {
            "@id": "diesel",
            "name": "Diesel",
            "termType": "fuel",
            "units": "kg"
          },
          "value": "81.48573128"
        }
      ],
      "name": "Peanut, in shell - Astaneh-ye-Ashrafiyeh, Iran - 2012",
      "practices": [
        {
          "@type": "Practice",
          "term": {
            "@id": "fullTillage",
            "name": "Full tillage",
            "termType": "landUseManagement"
          }
        }
      ],
      "products": [
        {
          "@type": "Product",
          "description": "Yield provided by author (Khojastehpour, M., personal communication, 28/08/2015)",
          "economicValueShare": "100",
          "primary": true,
          "term": {
            "@id": "peanutInShell",
            "name": "Peanut, in shell",
            "termType": "crop",
            "units": "kg"
          },
          "value": "3290"
        }
      ],
      "site": {
        "@id": "Medium"
      }
    },
    {
      "@id": "Large",
      "@type": "Cycle",
      "inputs": [
        {
          "@type": "Input",
          "term": {
            "@id": "ureaKgN",
            "name": "Urea (kg N)",
            "termType": "inorganicFertilizer",
            "units": "kg N"
          },
          "value": "56.184377"
        },
        {
          "@type": "Input",
          "term": {
            "@id": "inorganicPhosphorusFertiliserUnspecifiedKgP2O5",
            "name": "Inorganic Phosphorus fertiliser, unspecified (kg P2O5)",
            "termType": "inorganicFertilizer",
            "units": "kg P2O5"
          },
          "value": "17.902705"
        },
        {
          "@type": "Input",
          "term": {
            "@id": "inorganicPotassiumFertiliserUnspecifiedKgK2O",
            "name": "Inorganic Potassium fertiliser, unspecified (kg K2O)",
            "termType": "inorganicFertilizer",
            "units": "kg K2O"
          },
          "value": "41.393731"
        },
        {
          "@type": "Input",
          "term": {
            "@id": "diesel",
            "name": "Diesel",
            "termType": "fuel",
            "units": "kg"
          },
          "value": "78.45703088"
        }
      ],
      "name": "Peanut, in shell - Astaneh-ye-Ashrafiyeh, Iran - 2012",
      "practices": [
        {
          "@type": "Practice",
          "term": {
            "@id": "fullTillage",
            "name": "Full tillage",
            "termType": "landUseManagement"
          }
        }
      ],
      "products": [
        {
          "@type": "Product",
          "description": "Yield provided by author (Khojastehpour, M., personal communication, 28/08/2015)",
          "economicValueShare": "100",
          "primary": true,
          "term": {
            "@id": "peanutInShell",
            "name": "Peanut, in shell",
            "termType": "crop",
            "units": "kg"
          },
          "value": "3346.3",
          "added": ["value"],
          "addedVersion": ["0.0.0"]
        }
      ],
      "site": {
        "@id": "Large"
      }
    }
  ]
}
