{
  "nodes": [
    {
      "@id": "Small",
      "@type": "Cycle",
      "inputs": {
        "ureaKgN": {
          "value": "48.59624"
        }
      }
    },
    {
      "@id": "Medium",
      "@type": "Cycle",
      "inputs": {
        "ureaKgN": {
          "value": "52.3439"
        }
      }
    },
    {
      "@id": "Large",
      "@type": "Cycle",
      "inputs": {
        "ureaKgN": {
          "value": "56.184377"
        }
      }
    },
    {
      "@id": "smallSite",
      "@type": "Site",
      "measurements": {
        "dewPointAnnual": {}
      }
    },
    {
      "@id": "mediumSite",
      "@type": "Site",
      "measurements": {
        "dewPointAnnual": {}
      }
    },
    {
      "@id": "largeSite",
      "@type": "Site",
      "measurements": {
        "dewPointAnnual": {}
      }
    }
  ]
}
