{
  "nodes": [
    {
      "@id": "Small",
      "@type": "Cycle",
      "inputs": {
        "ureaKgN": {
          "properties": {
            "nitrogenContent": {
              "value": "6"
            },
            "propertyId": {
              "value": "3"
            }
          },
          "value": "1"
        }
      }
    },
    {
      "@id": "Medium",
      "@type": "Cycle",
      "inputs": {
        "ureaKgN": {
          "properties": {
            "nitrogenContent": {
              "value": "7"
            },
            "propertyId": {
              "value": "4"
            }
          },
          "value": "2"
        }
      }
    },
    {
      "@id": "Large",
      "@type": "Cycle",
      "inputs": {
        "ureaKgN": {
          "properties": {
            "nitrogenContent": {
              "value": "8"
            },
            "propertyId": {
              "value": "5"
            }
          },
          "value": "3"
        }
      }
    }
  ]
}
