{
  "nodes": [
    {
      "@id": "1",
      "@type": "Cycle",
      "emissions": [
        {
          "@type": "Emission",
          "operation": {
            "@id": "coolingWithEvaporativeCoolingTower",
            "name": "Cooling, with evaporative cooling tower"
          },
          "term": {
            "@id": "gwp100"
          },
          "value": "10;12"
        },
        {
          "@type": "Emission",
          "startDate": "01-02-23",
          "term": {
            "@id": "gwp100"
          },
          "value": "20;30"
        }
      ]
    },
    {
      "@id": "2",
      "@type": "Cycle",
      "emissions": [
        {
          "@type": "Emission",
          "operation": {
            "@id": "coolingWithEvaporativeCoolingTower",
            "name": "Cooling, with evaporative cooling tower"
          },
          "startDate": "11-11-23",
          "term": {
            "@id": "gwp100"
          }
        },
        {
          "@type": "Emission",
          "term": {
            "@id": "gwp100"
          },
          "value": "3"
        }
      ]
    }
  ]
}
