{
  "nodes": [
    {
      "@id": "Small",
      "@type": "Site",
      "measurements": [
        {
          "@type": "Measurement",
          "depthLower": "2",
          "depthUpper": "1",
          "methodModel": {
            "@id": "someModel"
          },
          "term": {
            "@id": "ureaKgN"
          },
          "value": "1"
        }
      ]
    },
    {
      "@id": "Medium",
      "@type": "Site",
      "measurements": [
        {
          "@type": "Measurement",
          "depthLower": "2",
          "depthUpper": "1",
          "methodModel": {
            "@id": "someModel"
          },
          "term": {
            "@id": "ureaKgN"
          },
          "value": "2"
        }
      ]
    },
    {
      "@id": "Large",
      "@type": "Site",
      "measurements": [
        {
          "@type": "Measurement",
          "depthLower": "2",
          "depthUpper": "1",
          "methodModel": {
            "@id": "someModel"
          },
          "term": {
            "@id": "ureaKgN"
          },
          "value": "3"
        }
      ]
    }
  ]
}