cycle.id,cycle.emissions.0.term.@id,cycle.emissions.0.term.subClassOf.0.@id,cycle.emissions.0.value,cycle.emissions.0.inputs.0.@id,cycle.emissions.0.transport.@id
Small,nh3ToAirInputsProduction,emission,1,diesel,car
Medium,nh3ToAirInputsProduction,emission,2,diesel,car
Large,nh3ToAirInputsProduction,emission,3,diesel,car