{
  "nodes": [
    {
      "@id": "1",
      "@type": "Cycle",
      "emissions": {
        "gwp100": {
          "dates": "01-02-22;02-02-22"
        },
        "gwp100+operation[coolingWithEvaporativeCoolingTower]": {
          "value": "10;12"
        },
        "gwp100+operation[smallTractorUseOperationUnspecified]": {
          "value": "20;30"
        },
        "noxToAirInputsProduction": {
          "dates": "9-9-21",
          "value": "10"
        }
      }
    },
    {
      "@id": "2",
      "@type": "Cycle",
      "emissions": {
        "gwp100": {
          "dates": "01-02-23;02-02-23"
        },
        "gwp100+operation[buttageOfVine]": {
          "value": "203;303"
        },
        "gwp100+operation[helicopterUseOperationUnspecified]": {
          "value": "103;123"
        }
      }
    },
    {
      "@id": "3",
      "@type": "Cycle",
      "emissions": {
        "ozoneDepletionPotential": {
          "dates": "07-07-19",
          "operation": {
            "@id": "coatingSeeds"
          },
          "value": "50"
        }
      }
    }
  ]
}