cycle.id,cycle.emissions.gwp100.value,cycle.emissions.gwp100+operation[coolingWithEvaporativeCoolingTower].value,cycle.emissions.gwp100+operation[coolingWithEvaporativeCoolingTower]+startDate[11-11-23].value,cycle.emissions.gwp100+startDate[01-02-23].value
1,-,10;12,-,20;30
2,3,-,-,-
