{
  "nodes": [
    {
      "@id": "1",
      "@type": "Cycle",
      "emissions": {
        "gwp100+operation[coolingWithEvaporativeCoolingTower]": {
          "value": "10;12"
        },
        "gwp100+startDate[01-02-23]": {
          "value": "20;30"
        }
      }
    },
    {
      "@id": "2",
      "@type": "Cycle",
      "emissions": {
        "gwp100": {
          "value": "3"
        }
      }
    }
  ]
}