{
  "nodes": [
    {
      "@id": "smallSite",
      "@type": "Site",
      "measurements": {
        "anotherId": {
          "methodModel": {
            "@id": "anotherMethod"
          },
          "value": "10"
        },
        "someId": {
          "methodModel": {
            "@id": "someMethod"
          },
          "value": "14"
        }
      }
    }
  ]
}